{
    "cordova-plugin-geolocation": {
        "source": {
            "type": "registry",
            "id": "cordova-plugin-geolocation"
        },
        "is_top_level": true,
        "variables": {}
    },
    "cordova-plugin-compat": {
        "source": {
            "type": "registry",
            "id": "cordova-plugin-compat"
        },
        "is_top_level": false,
        "variables": {}
    },
    "cordova-plugin-whitelist": {
        "source": {
            "type": "registry",
            "id": "cordova-plugin-whitelist@1"
        },
        "is_top_level": true,
        "variables": {}
    },
    "cordova-plugin-calendar": {
        "source": {
            "type": "registry",
            "id": "cordova-plugin-calendar"
        },
        "is_top_level": true,
        "variables": {}
    },
    "cordova-plugin-file": {
        "source": {
            "type": "registry",
            "id": "cordova-plugin-file"
        },
        "is_top_level": true,
        "variables": {}
    },
    "cordova-plugin-file-transfer": {
        "source": {
            "type": "registry",
            "id": "cordova-plugin-file-transfer"
        },
        "is_top_level": true,
        "variables": {}
    },
    "cordova-plugin-tts": {
        "source": {
            "type": "registry",
            "id": "cordova-plugin-tts"
        },
        "is_top_level": true,
        "variables": {}
    },
    "org.nypr.cordova.wakeupplugin": {
        "source": {
            "type": "git",
            "url": "https://github.com/wnyc/cordova-plugin-wakeuptimer.git",
            "subdir": "."
        },
        "is_top_level": true,
        "variables": {}
    }
}